…
jo$train()
```

    ## Growing trees.. Progress: 73%. Estimated remaining time: 11 seconds.
    ## 43.5 sec elapsed

``` r
jo$test(dev = F)
s <- jo$report()

jo$preds; jo$perform; jo$results
```

    ## # A tibble: 1,486 x 9
    ##     prob  pred  linear binary category lemma          ids target model_id  
    ##    <dbl> <dbl>   <dbl>  <dbl> <chr>    <chr>        <int>  <dbl> <chr>     
    ##  1 0.352     0 -0.134       0 black    rt @ vrick …  5969      0 5bdeaf85e…
    ##  2 0.348     0  1.74        0 white    rt @ expect…   871      0 5bdeaf85e…
    ##  3 0.261     0  0.578       0 hispanic opinion it …  9016      0 5bdeaf85e…
    ##  4 0.234     0  0.590       0 white    rt @usmclib…   755      0 5bdeaf85e…
    ##  5 0.729     1  0.0283      1 white    rt @ diamon…  3232      1 5bdeaf85e…
    ##  6 0.373     0  2.10        0 white    rt @maggien…  8509      0 5bdeaf85e…
    ##  7 0.481     0  0.513       0 white    excuse i wh…  3023      0 5bdeaf85e…
    ##  8 0.655     1  0.784       0 white    "rt drjohnh…  1202      0 5bdeaf85e…
    ##  9 0.446     0 -0.676       0 black    emotion be …  8336      0 5bdeaf85e…
    ## 10 0.249     0 -0.815       0 black    rt @somemid…  8607      0 5bdeaf85e…
    ## # … with 1,476 more rows
…
``` r
jo$test(dev = F)
jo$test()
s <- jo$report()

jo$preds; jo$perform; jo$results
```

    ## # A tibble: 1,515 x 9
    ##     prob  pred linear binary category lemma           ids target model_id  
    ##    <dbl> <dbl>  <dbl>  <dbl> <chr>    <chr>         <int>  <dbl> <chr>     
    ##  1 0.200     0  1.13       0 black    "rt @ ohnosh…   566      0 cbe6aa60b…
    ##  2 0.379     0  0.513      0 white    @theneedledr…  3561      0 cbe6aa60b…
    ##  3 0.380     0 -0.408      0 hispanic @bolanabos w…  4511      0 cbe6aa60b…
    ##  4 0.432     0  0.686      1 white    rt @ dennisd…  9928      1 cbe6aa60b…
    ##  5 0.351     0  0.353      1 white    first time e…  9842      1 cbe6aa60b…
    ##  6 0.669     1  1.46       1 white    rt @ucf_marc…  3492      1 cbe6aa60b…
    ##  7 0.315     0  0.518      0 hispanic rt @ luvdy :…  1712      0 cbe6aa60b…
    ##  8 0.208     0 -0.812      0 black    rt @ lilblac…  4092      0 cbe6aa60b…
    ##  9 0.294     0 -0.131      1 asian    rt @ cassidy…  5820      1 cbe6aa60b…
    ## 10 0.344     0  2.10       0 white    rt @maggieny…  8509      0 cbe6aa60b…
    ## # … with 1,505 more rows
…
jo$results; jo$preds; jo$perform
```

    ## # A tibble: 1 x 25
    ##   output_fun loss  metrics optimizer epochs embed_dim output_dim target
    ##   <chr>      <chr> <list>  <chr>      <dbl>     <dbl>      <dbl> <chr> 
    ## 1 sigmoid    bina… <tibbl… adam           1       128          1 binary
    ## # … with 17 more variables: model_name <chr>, data_name <chr>, text <chr>,
    ## #   input_dim <int>, seq_len <dbl>, term_count_min <dbl>,
    ## #   doc_proportion_max <dbl>, total_size <int>, data_path <chr>,
    ## #   train_size <int>, test_size <int>, val_size <int>, split_mode <S3:
    ## #   glue>, model_id <chr>, n_filters <dbl>, duration <dbl>,
    ## #   timestamp <chr>

    ## # A tibble: 722 x 9
    ##     prob  pred linear binary category lemma           ids target model_id  
    ##    <dbl> <dbl>  <dbl>  <dbl> <chr>    <chr>         <int>  <dbl> <chr>     
    ##  1 0.333     0 -0.670      0 hispanic check out wh…  4058      0 6e993a35d…
    ##  2 0.355     0  0.521      0 black    the nigga th…  9805      0 6e993a35d…
    ##  3 0.377     0  0.812      0 white    "rt @ natash…  2578      0 6e993a35d…
    ##  4 0.383     0  1.41       1 white    @feingold32 …   245      1 6e993a35d…
    ##  5 0.417     0  1.77       1 white    rt @ jeffkot…  7394      1 6e993a35d…
    ##  6 0.394     0  0.284      0 white    @maybeacrook…  3935      0 6e993a35d…
    ##  7 0.387     0  1.31       1 white    @hatamotorok…  4503      1 6e993a35d…
    ##  8 0.379     0  2.10       0 white    rt @ thedemc…  3953      0 6e993a35d…
    ##  9 0.415     0  0.793      1 white    sear fox nat…  2967      1 6e993a35d…
    ## 10 0.355     0  0.105      0 hispanic i be shook t…  6230      0 6e993a35d…
    ## # … with 712 more rows
…
